{
	"extension_description": {
		"message":     "Enable smart referers everywhere (send referer only on same domain)",
		"description": "Extension description"
	},
	
	
	"menu_options": {
		"message":     "Preferences…",
		"description": "The label of the menu item for opening the extension's preference page"
	},
	
	
	
	"options_enable_label": {
		"message":     "Enable Smart Referer",
		"description": "Label of the options page checkbox that enables or disables all of the extension's functionality"
	},
	
	"options_icon_color_mode_label": {
		"message":     "Fallback Toolbar Icon Color",
		"description": "Label of the options selection of different sources for the icon line color"
	},
	
	"options_icon_color_mode_description": {
		"message":     "The selected color value will only be used when no compatible theme is active.",
		"description": "Extra information for the options selection of different sources for the icon line color"
	},
	
	"options_icon_color_mode_managed": {
		"message":     "The current theme exports the required color information. No further configuration is necessary.",
		"description": "Message displayed when the icon color can be scraped from the current theme and no manual configuration is necessary"
	},
	
	"options_icon_color_mode_system": {
		"message":     "System Text Color",
		"description": "Options selection for deducing the icon line color based on the current system theme"
	},
	
	"options_icon_color_mode_default": {
		"message":     "Colors of the Default “Dark” & “Light” Themes",
		"description": "Options selection for using the icon line color based on the Mozilla default themes – note that these are *not* the themes used by default in most installations"
	},
	
	"options_icon_color_mode_custom": {
		"message":     "Custom Color:",
		"description": "Options selection for using the icon line color value set using the color selector placed after this message"
	},
	
	"options_strictness_label": {
		"message":     "Domain name matching strictness (For\u00A0testing\u00A0only)",
		"description": "Label of the options selection for determining whether different sub-domains of the same base domain will see each others referrers by default"
	},
	
	"options_strictness_description": {
		"message":     "Are sub-domains of the same base domain different websites?<br />(Should <code>a.example.com</code> and <code>b.example.com</code> be considered different hosts?)",
		"description": "Longer description of the options selection for determining whether different sub-domains of the same base domain will see each others referrers by default"
	},
	
	"options_strictness_disclaimer": {
		"message":     "Do not use this feature unless you are ready to resolve the resulting problems yourself!",
		"description": "Message reinforcing that changing the strictness option is not really supported"
	},
	
	"options_strictness_lax_label": {
		"message":     "Same-site (Strongly recommended)",
		"description": "Label of the options selection for determining whether different sub-domains of the same base domain will see each others referrers by default"
	},
	
	"options_strictness_lax_description": {
		"message":     "Consider different sub-domains of the same base domain as belonging to the same website.",
		"description": "Longer description of the options selection for determining whether different sub-domains of the same base domain will see each others referrers by default"
	},
	
	"options_strictness_strict_label": {
		"message":     "Strict",
		"description": "Label of the options selection for determining whether different sub-domains of the same base domain will see each others referrers by default"
	},
	
	"options_strictness_strict_description": {
		"message":     "Consider different sub-domains of the same base domain as belonging to different websites.",
		"description": "Longer description of the options selection for determining whether different sub-domains of the same base domain will see each others referrers by default"
	},
	
	"options_strictness_inf_label": {
		"message":     "Never",
		"description": "Label of the options selection for determining whether different sub-domains of the same base domain will see each others referrers by default"
	},
	
	"options_strictness_inf_description": {
		"message":     "Always treat resources as belonging to different websites, even if they are served from the exact same origin.",
		"description": "Longer description of the options selection for determining whether different sub-domains of the same base domain will see each others referrers by default"
	},
	
	"options_allow_label": {
		"message":     "Exceptions",
		"description": "Label of the options page table that allows configuring Smart Referer policy exceptions"
	},
	
	"options_allow_description": {
		"message":     "Always allow referers to be passed from and to the given source and target hosts",
		"description": "Longer description of the options page table that allows configuring Smart Referer policy exceptions"
	},
	
	"options_allow_heading_source": {
		"message":     "Source",
		"description": "Heading of the options page policy exception table column that contains the source host names"
	},
	
	"options_allow_heading_destination": {
		"message":     "Destination",
		"description": "Heading of the options page policy exception table column that contains the destination host names"
	},
	
	"options_allow_explanation": {
		"message":     "<ul><li>Both source and target hosts may contain wildcards: <code>example.*</code> matches all domains that have <code>example</code> as their second domain label (ie: <code>example.com</code>, <code>example.org</code>, <code>example.net</code>, …, but not <code>example2.org</code>).</li><li>Hosts starting with a single dot (<code>.</code>) will match both the base domain as well as any subdomain: <code>.example.org</code> will match both <code>example.org</code> and <code>bla.bla.example.org</code>.</li><li>A singe star (<code>*</code>) means “any host”.</li></ul>",
		"description": "Explanatory text that is displayed below the options page policy exception table – PLEASE MAKE SURE YOU USE THE SAME HTML TAGS WHEN TRANSLATING!"
	},
	
	"options_whitelist_label": {
		"message":     "Whitelist Sources",
		"description": "Label of the section that specifies the locations from which the updated lists of policy exceptions are regularly downloaded"
	},
	
	"options_whitelist_sources_heading": {
		"message":     "Custom Whitelist Sources",
		"description": "Heading text of the table containing custom whitelist sources that may be configured by the user"
	},
	
	"options_whitelist_default_label": {
		"message":     "Use default whitelist (<a target=\"_blank\" rel=\"noopener noreferrer\" href=\"$URL$\">View</a>)",
		"description": "Label of the checkbox that enables/disables the usage of the default whitelist source (please do not modify the <a>-tag from the original!)",
		"placeholders": {
			"url" : {
				"content" : "$1",
				"example" : "https://www.example.net/whitelist.txt"
			}
		}
	},
	
	"options_item_add.title": {
		"message":     "Add Item",
		"description": "Tooltip of the \"Add Item\" button next to not-yet-added items in the options page policy exception table"
	},
	
	"options_item_remove.title": {
		"message":     "Remove Item",
		"description": "Tooltip of the \"Remove Item\" button next to existing items of the options page policy exception table"
	},
	
	"options_mode_label": {
		"message":     "Rewrite Mode",
		"description": "Label of the drop-down menu for choosing which what to do if a referer is deemed as not being worthy of keeping"
	},
	
	"options_mode_self": {
		"message":     "Send the URL you're going to as referer (recommended)",
		"description": "Rewrite Mode that changes disallowed referers to the URL of the site being visited"
	},
	
	"options_mode_direct": {
		"message":     "Send nothing as referer, looking like a direct hit",
		"description": "Rewrite Mode that just drops all disallowed referers"
	},
	
	"options_mode_user": {
		"message":     "Use the following, provided referer:",
		"description": "Rewrite Mode that changes all disallowed referers to a user-provided value, that then may be entered into a text area field directly below the drop-down selection menu for picking the rewriting mode"
	},
	
	"options_mode_referer.title": {
		"message":     "Custom Referer Value",
		"description": "Tooltip text of the text box that can be used to enter a custom referer if \"Rewrite Mode\" is set to that mode"
	},
	
	
	
	"icon_title_enabled": {
		"message":     "Enabled",
		"description": "Text displayed in the browser action icon tooltip when request processing is being done"
	},
	
	"icon_title_disabled": {
		"message":     "Disabled",
		"description": "Text displayed in the browser action icon tooltip when no request processing is being done"
	},
	
	
	
	"log_blocked_http": {
		"message":     "Rejecting HTTP Referer “$SOURCE$” for “$TARGET$”",
		"description": "Message logged when a referer value has been blocked at the HTTP level",
		"placeholders": {
			"source" : {
				"content" : "%s",
				"example" : "https://www.example.net/"
			},
			
			"target" : {
				"content" : "%s",
				"example" : "https://example.com/"
			}
		}
	},
	
	"log_blocked_script": {
		"message":     "Rejecting script Referer “$SOURCE$” for “$TARGET$”",
		"description": "Message logged when a referer value has been blocked at the JavaScript level",
		"placeholders": {
			"source" : {
				"content" : "%s",
				"example" : "https://www.example.net/"
			},
			
			"target" : {
				"content" : "%s",
				"example" : "https://example.com/"
			}
		}
	},
	
	"log_whitelist_update_failed": {
		"message":     "Failed to retrieve whitelist source at “$URL$”:",
		"description": "Message logged when updating some whitelist source failed, the next line will contain the JavaScript exception",
		"placeholders": {
			"url" : {
				"content": "%s",
				"example": "https://www.example.net/whitelist.txt"
			}
		}
	},
	
	"log_whitelist_update_finished": {
		"message":     "Final whitelist has $COUNT$ items: $JSLIST$",
		"description": "Message logged when updating of whitelists has finished",
		"placeholders": {
			"count" : {
				"content": "%d",
				"example": "https://www.example.net/whitelist.txt"
			},
			
			"jslist" : {
				"content": "%o"
			}
		}
	}
}
